{
  "key": "sc_social_feed_module",
  "name": "social_feed",
  "label": "Social Feed",
  "display": "block",
  "sub_fields": [
    {
      "key": "sc_social_feed_module_title",
      "label": "Title",
      "name": "title",
      "type": "text",
      "instructions": "",
      "required": 0,
      "conditional_logic": 0,
      "wrapper": {
        "width": "100%",
        "class": "",
        "id": ""
      },
      "default_value": "",
      "placeholder": "",
      "prepend": "",
      "append": "",
      "maxlength": "",
      "readonly": 0,
      "disabled": 0
    },
    {
      "key": "sc_social_feed_module_facebook_enabled",
      "label": "Facebook Enabled",
      "name": "facebook_enabled",
      "type": "checkbox",
      "instructions": "",
      "required": 0,
      "conditional_logic": 0,
      "wrapper": {
        "width": "50%",
        "class": "",
        "id": ""
      },
      "choices": {
        "yes": "Check to enable the Facebook feed."
      },
      "allow_null": 1,
      "other_choice": 0,
      "save_other_choice": 0,
      "default_value": "",
      "layout": "horizontal",
      "return_format": "value"
    },
    {
      "key": "sc_social_feed_module_twitter_enabled",
      "label": "Twitter Enabled",
      "name": "twitter_enabled",
      "type": "checkbox",
      "instructions": "",
      "required": 0,
      "conditional_logic": 0,
      "wrapper": {
        "width": "50%",
        "class": "",
        "id": ""
      },
      "choices": {
        "yes": "Check to enable the Twitter feed."
      },
      "allow_null": 1,
      "other_choice": 0,
      "save_other_choice": 0,
      "default_value": "",
      "layout": "horizontal",
      "return_format": "value"
    }
  ],
  "min": "",
  "max": ""
}