{
  "version": "1.6.2",
  "details_url": "https://uhsrepo.eskycity.cloud/themes/uhs-theme-1/uhs-theme-1-1.6.2.html",
  "download_url": "https://uhsrepo.eskycity.cloud/themes/uhs-theme-1/uhs-theme-1-1.6.2.zip"
}
